{
	"ulid": "01FRBXYB0HKX4KWM8HN6Q91V29",
	"minTime": 1641067203288,
	"maxTime": 1641074400000,
	"stats": {
		"numSamples": 233272,
		"numSeries": 723,
		"numChunks": 1456
	},
	"compaction": {
		"level": 1,
		"sources": [
			"01FRBXYB0HKX4KWM8HN6Q91V29"
		]
	},
	"version": 1
}