{
	"ulid": "01FRB9B5ABF5SK5BXBPAF6M4VD",
	"minTime": 1640958983813,
	"maxTime": 1640980800000,
	"stats": {
		"numSamples": 954687,
		"numSeries": 725,
		"numChunks": 8659
	},
	"compaction": {
		"level": 3,
		"sources": [
			"01FR8PR161G5Q3PDYBRR02H31V",
			"01FR8PYWXASFAXTHH23H99CYBT",
			"01FR8XTM5CQC71NXPB121DD862",
			"01FRASKKZKX745KRW0GF6ZSGWF"
		],
		"parents": [
			{
				"ulid": "01FRB3XG6EGMKZKCKEQFDJQPH5",
				"minTime": 1640958983813,
				"maxTime": 1640973600000
			},
			{
				"ulid": "01FRASKKZKX745KRW0GF6ZSGWF",
				"minTime": 1640973600000,
				"maxTime": 1640980800000
			}
		]
	},
	"version": 1
}